24.61
23.59
21.52
24.34
27.32
21.19
19.4
22.24
25.84
24.72
24.22
24.57
18.61
21.57
21.58
19.65
18.3
22.85
21.76
22.49
21.82
23.15
20.54
21.97
23.43
23.08
25.15
24.52
24.81
19.37
19.3
19.63
20.27
23.42
23.38
24.66
24.71
18.11
18.4
21.35
20.0
21.73
19.27
20.57
29.53
26.5
24.71
26.82
21.29
27.61
22.7
27.24
18.44
19.68
19.33
16.94
27.27
23.48
27.24
20.25
26.18
24.08
24.77
24.79
19.72
20.86
22.7
22.88
25.15
24.27
26.27
25.15
23.89
25.12
27.59
28.57
25.97
